D:\baranee\java\trg\day8\unittest\src\test\java\com\kgisl\unittest\AppTest.java
D:\baranee\java\trg\day8\unittest\src\test\java\com\kgisl\unittest\CalcTest.java
D:\baranee\java\trg\day8\unittest\src\test\java\com\kgisl\unittest\CalculatorTest.java
