D:\baranee\java\trg\day6\day7\unittest\src\test\java\com\kgisl\unittest\CalcTest.java
D:\baranee\java\trg\day6\day7\unittest\src\test\java\com\kgisl\unittest\CalculatorTest.java
D:\baranee\java\trg\day6\day7\unittest\src\test\java\com\kgisl\unittest\AppTest.java
