-------------------------------------------------------------------------------
Test set: com.kgisl.mvndemo.CalculatorTest
-------------------------------------------------------------------------------
Tests run: 4, Failures: 0, Errors: 0, Skipped: 0, Time elapsed: 0 sec
