<?xml version="1.0" encoding="UTF-8"?>
<testng-results skipped="0" failed="0" ignored="0" total="0" passed="0">
  <reporter-output>
  </reporter-output>
  <suite name="com.kgisl.mvndemo.AppTest" duration-ms="12" started-at="2020-04-02T16:04:32 IST" finished-at="2020-04-02T16:04:32 IST">
    <groups>
    </groups>
    <test name="Command line test" duration-ms="12" started-at="2020-04-02T16:04:32 IST" finished-at="2020-04-02T16:04:32 IST">
    </test> <!-- Command line test -->
  </suite> <!-- com.kgisl.mvndemo.AppTest -->
</testng-results>
