-------------------------------------------------------------------------------
Test set: com.kgisl.unittest.CalcTest
-------------------------------------------------------------------------------
Tests run: 2, Failures: 0, Errors: 0, Skipped: 0, Time elapsed: 0.084 sec
